{
  "project_info": {
    "project_number": "111803205512",
    "firebase_url": "https://onesignalnotification-8a4fc.firebaseio.com",
    "project_id": "onesignalnotification-8a4fc",
    "storage_bucket": "onesignalnotification-8a4fc.appspot.com"
  },
  "client": [
    {
      "client_info": {
        "mobilesdk_app_id": "1:111803205512:android:fedb63d9df1e5a612a5c3d",
        "android_client_info": {
          "package_name": "com.app.yellowpages"
        }
      },
      "oauth_client": [
        {
          "client_id": "111803205512-ru05j1mv4b8mimtiflun47lskgrm3qv5.apps.googleusercontent.com",
          "client_type": 3
        }
      ],
      "api_key": [
        {
          "current_key": "AIzaSyAr08ou-weWYkzPDvjRSBrbHb0aAf-sG54"
        }
      ],
      "services": {
        "appinvite_service": {
          "other_platform_oauth_client": [
            {
              "client_id": "111803205512-ru05j1mv4b8mimtiflun47lskgrm3qv5.apps.googleusercontent.com",
              "client_type": 3
            }
          ]
        }
      }
    }
  ],
  "configuration_version": "1"
}